C:\Users\ronal\OneDrive\Documents\Jorge\shift-or-algorithm\src\main\java\Util\Impresora.java
C:\Users\ronal\OneDrive\Documents\Jorge\shift-or-algorithm\src\main\java\module-info.java
C:\Users\ronal\OneDrive\Documents\Jorge\shift-or-algorithm\src\main\java\Modelo\ShiftOr.java
C:\Users\ronal\OneDrive\Documents\Jorge\shift-or-algorithm\src\main\java\Vista\App.java
C:\Users\ronal\OneDrive\Documents\Jorge\shift-or-algorithm\src\main\java\Vista\VentanaStringController.java
